expertise,group_ethnicity,sex,email
actuariat,White,f,3
actuariat,White,m,6
administration,White,f,1
administration,White,m,2
affaires internationales,Arab,m,1
affaires internationales,Asian,f,1
affaires internationales,Asian,m,1
affaires internationales,White,f,7
affaires internationales,White,m,7
agriculture,Arab,f,1
agriculture,Arab,m,2
agriculture,White,f,6
agriculture,White,m,30
aliments et nutrition,Arab,m,1
aliments et nutrition,Black,m,1
aliments et nutrition,White,f,19
aliments et nutrition,White,m,17
aménagement et urbanisme,White,f,4
aménagement et urbanisme,White,m,11
animaux,White,f,2
animaux,White,m,16
anthropologie,Arab,m,1
anthropologie,White,f,8
anthropologie,White,m,4
architecture,White,f,4
architecture,White,m,10
archéologie,White,f,1
archéologie,White,m,5
art history,White,f,1
art history,White,m,1
art history and liberal arts,White,m,1
arts & science,White,f,1
arts & science,White,m,1
arts & science – religion,White,m,1
arts visuels,White,f,2
arts visuels,White,m,5
arts visuels et médiatiques,White,f,22
arts visuels et médiatiques,White,m,18
assurance,White,f,1
assurance,White,m,4
astronomie,White,f,1
astronomie,White,m,2
athletics,White,f,2
athletics,White,m,17
aéronautique,White,m,1
biochemistry,White,f,1
biochemistry and biology,White,f,1
biochimie et microbiologie,Asian,m,2
biochimie et microbiologie,White,f,3
biochimie et microbiologie,White,m,19
biological sciences,White,f,1
biology,Black,f,1
biology,White,f,9
biology,White,m,9
buildings & grounds,White,f,12
buildings & grounds,White,m,32
centre de recherche sur la dynamique du système terre (geotop),White,f,1
centre eau terre environnement,Arab,f,1
centre eau terre environnement,Arab,m,2
centre eau terre environnement,Asian,f,0
centre eau terre environnement,Asian,m,2
centre eau terre environnement,White,f,6
centre eau terre environnement,White,m,22
centre inrs–institut armand-frappier,Asian,m,1
centre inrs–institut armand-frappier,Black,m,2
centre inrs–institut armand-frappier,White,f,14
centre inrs–institut armand-frappier,White,m,31
centre urbanisation culture société,Asian,m,1
centre urbanisation culture société,White,f,17
centre urbanisation culture société,White,m,14
centre énergie matériaux télécommunications,Arab,f,3
centre énergie matériaux télécommunications,Arab,m,6
centre énergie matériaux télécommunications,Asian,f,2
centre énergie matériaux télécommunications,Asian,m,3
centre énergie matériaux télécommunications,White,f,1
centre énergie matériaux télécommunications,White,m,22
cerveau et système nerveux,White,f,10
cerveau et système nerveux,White,m,31
chemistry,White,m,9
chimie,Arab,f,1
chimie,Arab,m,6
chimie,Asian,m,4
chimie,Black,m,1
chimie,White,f,7
chimie,White,m,37
cinéma,White,f,4
cinéma,White,m,3
classical studies,White,f,3
classical studies,White,m,2
classical studies and liberal arts,White,f,1
communication,Black,m,1
communication,White,f,11
communication,White,m,13
communication sociale et publique,Black,m,3
communication sociale et publique,White,f,25
communication sociale et publique,White,m,14
communications,White,f,2
comptabilité,White,f,4
comptabilité,White,m,5
computer science,Arab,f,1
computer science,Arab,m,4
computer science,White,m,4
condition masculine,White,m,2
consommation,Arab,f,1
consommation,Arab,m,1
consommation,White,f,4
consommation,White,m,5
continuing education,Arab,f,1
continuing education,White,f,3
continuing education,White,m,1
criminologie,White,f,3
criminologie,White,m,2
danse,White,f,10
danse,White,m,2
design,White,f,2
design,White,m,3
didactique,Arab,m,2
didactique,White,f,18
didactique,White,m,17
didactique des langues,Asian,m,0
didactique des langues,Black,m,1
didactique des langues,White,f,17
didactique des langues,White,m,6
drama,White,f,4
drama,White,m,7
droit et justice,Arab,m,1
droit et justice,Black,m,2
droit et justice,White,f,25
droit et justice,White,m,26
décanat (esg),Black,m,1
décanat (esg),White,m,2
décanat de la faculté de communication,White,m,2
démographie,White,m,3
eau,White,f,3
eau,White,m,15
eau terre environnement,Arab,f,0
eau terre environnement,Arab,m,0
eau terre environnement,Asian,f,0
eau terre environnement,Asian,m,0
eau terre environnement,Black,m,0
eau terre environnement,White,f,0
eau terre environnement,White,m,0
economics,White,f,1
economics,White,m,4
enfance - adolescence,White,f,21
enfance - adolescence,White,m,7
english,White,f,3
english,White,m,10
enseignement - éducation,Arab,f,1
enseignement - éducation,Asian,f,1
enseignement - éducation,Black,f,1
enseignement - éducation,Black,m,3
enseignement - éducation,White,f,31
enseignement - éducation,White,m,25
entrepreneuriat et innovation,Asian,f,1
entrepreneuriat et innovation,White,m,12
environment and geography,White,f,4
environment and geography,White,m,10
environnement,Arab,f,2
environnement,Black,m,1
environnement,White,f,14
environnement,White,m,26
evironment and geography,White,f,1
faculté de science politique et de droit,White,f,1
faculté de science politique et de droit,White,m,2
faculté des arts,White,f,1
faculté des arts,White,m,2
faculté des sciences,White,f,1
faculté des sciences,White,m,1
faculté des sciences de l'éducation,White,f,1
faculté des sciences de l'éducation,White,m,1
faculté des sciences humaines,White,m,1
famille - couple,White,f,10
famille - couple,White,m,8
femmes - condition féminine,Arab,m,1
femmes - condition féminine,White,f,13
finance,Arab,f,2
finance,Arab,m,5
finance,Asian,m,2
finance,Black,m,2
finance,White,f,9
finance,White,m,42
fine arts,White,f,7
fine arts,White,m,3
forêt - foresterie,Black,m,1
forêt - foresterie,White,f,4
forêt - foresterie,White,m,22
gestion - administration,Arab,m,2
gestion - administration,Asian,m,1
gestion - administration,Black,m,1
gestion - administration,White,f,16
gestion - administration,White,m,23
gestion des opérations et de la logistique,White,f,8
gestion des opérations et de la logistique,White,m,15
gestion des ressources humaines,Arab,f,1
gestion des ressources humaines,White,f,3
gestion des ressources humaines,White,m,13
génie chimique,Arab,m,2
génie chimique,Asian,m,1
génie chimique,Black,m,1
génie chimique,White,f,3
génie chimique,White,m,24
génie civil,Arab,m,1
génie civil,White,f,1
génie civil,White,m,8
génie de la construction,Arab,f,1
génie de la construction,Arab,m,8
génie de la construction,White,f,9
génie de la construction,White,m,21
génie des systèmes,Arab,f,1
génie des systèmes,Arab,m,5
génie des systèmes,Asian,m,1
génie des systèmes,White,f,3
génie des systèmes,White,m,17
génie industriel,White,m,2
génie informatique et génie logiciel,Arab,f,3
génie informatique et génie logiciel,Asian,m,1
génie informatique et génie logiciel,Black,m,1
génie informatique et génie logiciel,White,f,3
génie informatique et génie logiciel,White,m,31
génie logiciel et des ti,Arab,f,3
génie logiciel et des ti,Arab,m,4
génie logiciel et des ti,Asian,m,2
génie logiciel et des ti,Black,m,1
génie logiciel et des ti,White,f,1
génie logiciel et des ti,White,m,23
génie mécanique,Arab,m,13
génie mécanique,Asian,m,5
génie mécanique,Black,m,2
génie mécanique,White,f,12
génie mécanique,White,m,82
génie physique,Arab,m,1
génie physique,Asian,m,1
génie physique,White,f,3
génie physique,White,m,23
génie électrique,Arab,f,2
génie électrique,Arab,m,16
génie électrique,Asian,m,5
génie électrique,White,f,4
génie électrique,White,m,54
génies civil,Arab,m,3
génies civil,Asian,m,1
génies civil,Black,m,3
génies civil,White,f,4
génies civil,White,m,6
génétique - génomique,Arab,m,1
génétique - génomique,Asian,m,1
génétique - génomique,White,f,13
génétique - génomique,White,m,31
géographie,Arab,f,1
géographie,Arab,m,0
géographie,Black,m,1
géographie,White,f,9
géographie,White,m,27
géologie,White,f,1
géologie,White,m,7
géomatique,Arab,m,1
géomatique,White,f,1
géomatique,White,m,13
health services,White,f,6
health services,White,m,0
histoire,Asian,m,1
histoire,White,f,32
histoire,White,m,57
histoire de l'art,Arab,f,1
histoire de l'art,White,f,18
histoire de l'art,White,m,16
history and global studies,White,f,2
history and global studies,White,m,7
history and global studies / religion,White,m,1
human resources,White,f,2
human resources,White,m,2
humanities,White,f,2
immigration - migrations et réfugiés,Arab,f,1
immigration - migrations et réfugiés,Arab,m,1
immigration - migrations et réfugiés,White,f,4
immigration - migrations et réfugiés,White,m,1
informatique,Arab,f,4
informatique,Arab,m,7
informatique,Black,m,4
informatique,White,f,5
informatique,White,m,21
informatique - génie informatique,Arab,f,2
informatique - génie informatique,Arab,m,3
informatique - génie informatique,White,f,5
informatique - génie informatique,White,m,20
informatique et d'ingénierie,Arab,f,2
informatique et d'ingénierie,Arab,m,8
informatique et d'ingénierie,Black,m,0
informatique et d'ingénierie,White,m,9
inrs–institut armand-frappier,Black,m,0
inrs–institut armand-frappier,White,f,0
inrs–institut armand-frappier,White,m,0
langues et linguistique,Asian,f,1
langues et linguistique,White,f,11
langues et linguistique,White,m,10
linguistique,White,f,13
linguistique,White,m,7
littérature,White,f,11
littérature,White,m,13
management,Arab,m,4
management,Asian,m,1
management,Black,m,1
management,White,f,25
management,White,m,27
management et technologie,Arab,f,3
management et technologie,Arab,m,3
management et technologie,Asian,m,1
management et technologie,Black,f,1
management et technologie,Black,m,0
management et technologie,White,f,20
management et technologie,White,m,38
marketing,Arab,f,2
marketing,Arab,m,4
marketing,Asian,f,1
marketing,Black,m,1
marketing,White,f,20
marketing,White,m,38
mathematics,White,f,1
mathematics,White,m,6
mathematics & computer science,Arab,m,1
mathematics / environment and geography / williams school of business,White,m,1
mathématiques,Arab,m,2
mathématiques,Asian,m,1
mathématiques,Black,f,1
mathématiques,White,f,13
mathématiques,White,m,41
mathématiques et de génie industriel,Arab,f,4
mathématiques et de génie industriel,Arab,m,4
mathématiques et de génie industriel,Asian,m,1
mathématiques et de génie industriel,Black,m,2
mathématiques et de génie industriel,White,f,10
mathématiques et de génie industriel,White,m,39
mathématiques et statistique,Arab,m,1
mathématiques et statistique,White,f,1
mathématiques et statistique,White,m,20
mines - métallurgie,Arab,m,1
mines - métallurgie,Asian,m,1
mines - métallurgie,Black,m,1
mines - métallurgie,White,f,1
mines - métallurgie,White,m,12
modern languages,White,f,1
modern languages,White,m,1
modern languages literatures and cultures,Black,f,1
modern languages literatures and cultures – german studies,White,f,3
modern languages literatures and cultures – german studies,White,m,1
modern languages literatures and cultures – hispanic studies,White,f,3
modern languages literatures and cultures – hispanic studies,White,m,2
modern languages literatures and cultures – japanese studies,Asian,f,2
modern languages literatures and cultures – japanese studies,Asian,m,2
modern languages literatures and cultures – japanese studies,White,f,1
modern languages – esl,White,f,2
modern languages – esl,White,m,1
music,Asian,f,1
music,White,f,13
music,White,m,11
music and arts administration,White,m,1
musique,Asian,f,1
musique,Black,m,1
musique,White,f,12
musique,White,m,16
muséologie,White,m,2
médecine : anesthésie,White,f,1
médecine : anesthésie,White,m,3
médecine : chirurgie,White,f,1
médecine : chirurgie,White,m,2
médecine : endocrinologie,White,f,1
médecine : endocrinologie,White,m,2
médecine : technologies médicales,Arab,m,1
médecine : technologies médicales,Asian,m,2
médecine : technologies médicales,White,f,3
médecine : technologies médicales,White,m,15
médecine communautaire et sociale,White,f,2
médecine communautaire et sociale,White,m,3
médecine d'urgence,White,f,2
médecine d'urgence,White,m,3
médecine dentaire,Arab,m,1
médecine dentaire,White,f,2
médecine dentaire,White,m,5
médecine du sport,White,m,6
médecine et technologies de l'information,Arab,f,1
médecine et technologies de l'information,White,f,1
médecine et technologies de l'information,White,m,3
médecine familiale,White,f,1
médecine familiale,White,m,1
médecine nucléaire,White,m,1
médecine pédiatrique,White,f,3
médecine pédiatrique,White,m,3
médias,Arab,m,1
médias,White,f,11
médias,White,m,27
médicaments,Arab,m,1
médicaments,White,f,10
médicaments,White,m,14
natural sciences,White,m,1
océans - ressources aquatiques et pêche,Black,m,1
océans - ressources aquatiques et pêche,White,f,3
océans - ressources aquatiques et pêche,White,m,10
optique - photonique et lasers,Arab,m,2
optique - photonique et lasers,Asian,m,2
optique - photonique et lasers,White,f,3
optique - photonique et lasers,White,m,16
organisation et ressources humaines,Black,m,1
organisation et ressources humaines,White,f,32
organisation et ressources humaines,White,m,17
organisations et accords internationaux,Black,m,2
organisations et accords internationaux,White,f,2
organisations et accords internationaux,White,m,4
pays et régions du monde,Asian,m,2
pays et régions du monde,White,f,10
pays et régions du monde,White,m,12
philosophie,White,f,12
philosophie,White,m,26
philosophy,White,f,1
philosophy,White,m,4
philosophy / liberal arts,White,m,1
philosophy / politics and international studies,White,m,1
physics and astronomy,Arab,f,2
physics and astronomy,Arab,m,2
physics and astronomy,White,f,2
physics and astronomy,White,m,12
physics and astronomy / williams school of business,White,m,1
physique,Asian,m,1
physique,White,m,8
politics & international studies,White,f,3
politics & international studies,White,m,5
politics & international studies / williams school of business,White,m,1
politics and international studies,White,m,1
politique - science politique,White,f,15
politique - science politique,White,m,35
psychologie,Arab,f,1
psychologie,Arab,m,1
psychologie,Asian,f,1
psychologie,Black,m,2
psychologie,White,f,70
psychologie,White,m,59
psychology,White,f,9
psychology,White,m,8
psychology / philosophy,White,m,1
psychoéducation et de psychologie,Arab,m,0
psychoéducation et de psychologie,White,f,25
psychoéducation et de psychologie,White,m,13
questions autochtones,White,f,3
questions autochtones,White,m,7
relations industrielles,Arab,m,2
relations industrielles,White,f,8
relations industrielles,White,m,7
religion,White,m,3
réadaptation,White,f,4
réadaptation,White,m,9
sans appartenance départementale,Arab,m,1
sans appartenance départementale,Black,m,1
sans appartenance départementale,White,f,3
sans appartenance départementale,White,m,7
santé : administration,White,f,7
santé : administration,White,m,7
santé : alcool - drogues et dépendances,White,f,3
santé : alcool - drogues et dépendances,White,m,6
santé : approches alternatives,White,f,1
santé : approches alternatives,White,m,1
santé : cancer,Arab,m,1
santé : cancer,Asian,m,1
santé : cancer,White,f,8
santé : cancer,White,m,22
santé : diabète,White,f,6
santé : diabète,White,m,9
santé : divers,White,f,2
santé : divers,White,m,4
santé : douleur,White,f,1
santé : douleur,White,m,3
santé : déficience physique,White,f,2
santé : déficience physique,White,m,1
santé : environnement,White,f,3
santé : environnement,White,m,4
santé : foie et rein,White,m,3
santé : grossesse et maternité,Arab,f,1
santé : grossesse et maternité,White,f,5
santé : grossesse et maternité,White,m,11
santé : maladies cardiovasculaires,Arab,m,1
santé : maladies cardiovasculaires,White,f,5
santé : maladies cardiovasculaires,White,m,26
santé : maladies dégénératives,White,f,4
santé : maladies dégénératives,White,m,14
santé : maladies infectieuses,White,f,2
santé : maladies infectieuses,White,m,13
santé : maladies inflammatoires,White,f,3
santé : maladies inflammatoires,White,m,7
santé : maladies respiratoires,Arab,f,1
santé : maladies respiratoires,White,f,4
santé : maladies respiratoires,White,m,14
santé : obésité,White,f,6
santé : obésité,White,m,14
santé : oreille,White,f,1
santé : oreille,White,m,1
santé : os,White,f,1
santé : os,White,m,3
santé : peau,White,f,3
santé : peau,White,m,2
santé : sein,White,f,1
santé : sein,White,m,2
santé : soins de fin de vie,White,f,1
santé : soins de fin de vie,White,m,3
santé : soins infirmiers,White,f,3
santé : soins infirmiers,White,m,1
santé : sommeil,White,f,5
santé : sommeil,White,m,3
santé : système musculosquelettique,White,f,4
santé : système musculosquelettique,White,m,7
santé : système reproducteur,White,f,2
santé : système reproducteur,White,m,8
santé : troubles du langage,White,f,4
santé : troubles du langage,White,m,1
santé : troubles mentaux,White,f,16
santé : troubles mentaux,White,m,12
santé : yeux,White,f,2
santé : yeux,White,m,5
santé : éducation,Black,m,1
santé : éducation,White,f,4
santé : éducation,White,m,4
school of education,Arab,m,1
school of education,Asian,f,2
school of education,Black,m,2
school of education,White,f,32
school of education,White,m,14
school of education & fine arts,White,m,1
science et technologie,Arab,f,1
science et technologie,Arab,m,2
science et technologie,Black,m,1
science et technologie,White,f,3
science et technologie,White,m,6
science politique,Asian,m,1
science politique,Black,m,1
science politique,White,f,16
science politique,White,m,28
sciences administratives,Arab,f,2
sciences administratives,Arab,m,4
sciences administratives,Asian,f,1
sciences administratives,Black,f,3
sciences administratives,Black,m,1
sciences administratives,White,f,13
sciences administratives,White,m,16
sciences biologiques,Arab,m,3
sciences biologiques,Asian,m,1
sciences biologiques,Black,f,1
sciences biologiques,Black,m,1
sciences biologiques,White,f,17
sciences biologiques,White,m,29
sciences comptables,Arab,f,3
sciences comptables,Arab,m,6
sciences comptables,Black,f,2
sciences comptables,Black,m,3
sciences comptables,White,f,45
sciences comptables,White,m,41
sciences de l'activité physique,Black,m,1
sciences de l'activité physique,White,f,11
sciences de l'activité physique,White,m,17
sciences de l'administration,Arab,f,6
sciences de l'administration,Arab,m,3
sciences de l'administration,White,f,14
sciences de l'administration,White,m,14
sciences de l'éducation,Arab,m,0
sciences de l'éducation,Asian,m,0
sciences de l'éducation,White,f,21
sciences de l'éducation,White,m,9
sciences de la décision,Arab,f,2
sciences de la décision,Arab,m,2
sciences de la décision,Asian,m,1
sciences de la décision,White,f,7
sciences de la décision,White,m,20
sciences de la terre et de l'atmosphère,Arab,m,2
sciences de la terre et de l'atmosphère,Asian,f,1
sciences de la terre et de l'atmosphère,Black,m,1
sciences de la terre et de l'atmosphère,White,f,4
sciences de la terre et de l'atmosphère,White,m,23
sciences des religions,White,f,11
sciences des religions,White,m,7
sciences des religions et théologie,Asian,m,1
sciences des religions et théologie,White,f,4
sciences des religions et théologie,White,m,7
sciences humaines lettres et communications,Arab,f,3
sciences humaines lettres et communications,Black,m,1
sciences humaines lettres et communications,White,f,11
sciences humaines lettres et communications,White,m,18
sciences infirmières,Arab,m,1
sciences infirmières,Black,f,1
sciences infirmières,Black,m,2
sciences infirmières,White,f,18
sciences infirmières,White,m,4
sciences juridiques,White,f,20
sciences juridiques,White,m,16
sciences naturelles,White,f,3
sciences naturelles,White,m,10
sciences sociales,Black,m,2
sciences sociales,White,f,5
sciences sociales,White,m,13
sciences économiques,Arab,m,1
sciences économiques,Asian,m,1
sciences économiques,White,f,7
sciences économiques,White,m,31
service social,White,f,11
service social,White,m,6
sexologie,White,f,16
sexologie,White,m,10
sexualité,White,f,1
sexualité,White,m,3
social sciences,White,f,1
sociologie,Arab,m,3
sociologie,Black,m,1
sociologie,White,f,21
sociologie,White,m,21
sociology,White,f,8
sociology,White,m,6
société - sociologie,White,f,11
société - sociologie,White,m,15
sodexo,White,f,1
sodexo,White,m,2
sport - activité physique,White,f,5
sport - activité physique,White,m,14
sports medicine,White,f,5
sports medicine,White,m,2
sports studies,White,f,1
sports studies,White,m,8
stratégie responsabilité sociale et environnementale,Arab,f,3
stratégie responsabilité sociale et environnementale,Arab,m,3
stratégie responsabilité sociale et environnementale,Black,f,1
stratégie responsabilité sociale et environnementale,White,f,8
stratégie responsabilité sociale et environnementale,White,m,13
systèmes de gestion et d'aide à la décision,White,f,2
systèmes de gestion et d'aide à la décision,White,m,3
technologies de l'information,Arab,m,1
technologies de l'information,Asian,m,1
technologies de l'information,Black,m,1
technologies de l'information,White,f,8
technologies de l'information,White,m,10
théâtre,White,f,2
théâtre,White,m,3
tourisme,White,f,1
tourisme,White,m,2
transports,White,m,4
travail - emploi,Arab,m,2
travail - emploi,Black,m,2
travail - emploi,White,f,18
travail - emploi,White,m,27
travail social,Arab,f,1
travail social,Arab,m,0
travail social,White,f,14
travail social,White,m,4
télécommunications,White,f,2
télécommunications,White,m,3
urbanisation culture société,White,f,0
urbanisation culture société,White,m,0
vieillesse - personnes âgées,White,f,8
vieillesse - personnes âgées,White,m,9
ville de québec,White,m,3
végétaux,Arab,m,1
végétaux,Black,m,1
végétaux,White,f,8
végétaux,White,m,22
williams school of business,Arab,m,1
williams school of business,Asian,f,1
williams school of business,Asian,m,1
williams school of business,Black,m,1
williams school of business,White,f,13
williams school of business,White,m,13
williams school of business – dobson-lagassé entrepreneurship centre,White,m,1
école de design,Asian,m,1
école de design,Black,m,1
école de design,White,f,8
école de design,White,m,22
école de langues,Arab,f,2
école de langues,Arab,m,1
école de langues,Asian,f,2
école de langues,White,f,16
école de langues,White,m,5
école de travail social,Arab,f,1
école de travail social,Black,f,1
école de travail social,White,f,17
école de travail social,White,m,9
école multidisciplinaire de l'image,White,f,4
école multidisciplinaire de l'image,White,m,6
école supérieure de mode esg uqam,Asian,f,1
école supérieure de mode esg uqam,White,f,2
école supérieure de mode esg uqam,White,m,1
école supérieure de théâtre,White,f,16
école supérieure de théâtre,White,m,4
économie,Arab,m,1
économie,Asian,m,1
économie,Black,m,1
économie,White,f,10
économie,White,m,34
économie appliquée,Arab,f,1
économie appliquée,Arab,m,2
économie appliquée,Asian,m,1
économie appliquée,White,f,4
économie appliquée,White,m,20
éducation,White,f,8
éducation,White,m,7
éducation et formation spécialisées,White,f,38
éducation et formation spécialisées,White,m,14
éducation et pédagogie,Arab,m,1
éducation et pédagogie,Black,f,1
éducation et pédagogie,Black,m,1
éducation et pédagogie,White,f,13
éducation et pédagogie,White,m,12
énergie,White,f,2
énergie,White,m,6
énergie matériaux télécommunications,Arab,m,0
énergie matériaux télécommunications,Asian,m,0
énergie matériaux télécommunications,Black,m,0
énergie matériaux télécommunications,White,f,0
énergie matériaux télécommunications,White,m,0
éthique,White,f,6
éthique,White,m,7
études françaises et québécoises,Black,m,1
études françaises et québécoises,White,f,4
études françaises et québécoises,White,m,4
études langagières,Black,f,1
études langagières,White,f,5
études langagières,White,m,0
études littéraires,Black,m,1
études littéraires,White,f,20
études littéraires,White,m,23
études urbaines et touristiques,Arab,m,2
études urbaines et touristiques,Asian,f,2
études urbaines et touristiques,Black,f,1
études urbaines et touristiques,White,f,8
études urbaines et touristiques,White,m,21
évolution,White,f,1
